[gd_scene format=2]

[node name="MenuButtons" type="HBoxContainer"]
margin_right = 800.0
margin_bottom = 75.0
size_flags_horizontal = 3
__meta__ = {
"_edit_group_": true,
"_edit_lock_": true
}

[node name="MinersMenuButton" type="Button" parent="."]
margin_right = 130.0
margin_bottom = 75.0
size_flags_horizontal = 3
text = "Miners"

[node name="ForgeMenuButton" type="Button" parent="."]
margin_left = 134.0
margin_right = 264.0
margin_bottom = 75.0
size_flags_horizontal = 3
text = "Forge"

[node name="CrafterMenuButton" type="Button" parent="."]
margin_left = 268.0
margin_right = 398.0
margin_bottom = 75.0
size_flags_horizontal = 3
text = "Crafting"

[node name="MarketMenuButton" type="Button" parent="."]
margin_left = 402.0
margin_right = 532.0
margin_bottom = 75.0
size_flags_horizontal = 3
text = "Market"

[node name="UpgradeMenuButton" type="Button" parent="."]
margin_left = 536.0
margin_right = 666.0
margin_bottom = 75.0
size_flags_horizontal = 3
text = "Upgrades"

[node name="OptionMenuButton" type="Button" parent="."]
margin_left = 670.0
margin_right = 800.0
margin_bottom = 75.0
size_flags_horizontal = 3
text = "Options"
