[gd_scene load_steps=2 format=2]

[ext_resource path="res://icon.png" type="Texture" id=1]

[node name="BaseForge" type="Panel"]
anchor_right = 1.0
anchor_bottom = 1.0
margin_right = -350.0
margin_bottom = -240.0

[node name="icon" type="Sprite" parent="."]
position = Vector2( 50, 50 )
texture = ExtResource( 1 )
__meta__ = {
"_edit_lock_": true
}

[node name="ProgressBar" type="ProgressBar" parent="."]
margin_left = 110.0
margin_top = 100.0
margin_right = 308.0
margin_bottom = 130.0

[node name="Label" type="Label" parent="."]
margin_left = 100.0
margin_top = 20.0
margin_right = 298.0
margin_bottom = 50.0
text = "[ Name Forge ]"
align = 1
valign = 1
clip_text = true

[node name="Label2" type="Label" parent="."]
margin_left = 310.0
margin_top = 30.0
margin_right = 440.0
margin_bottom = 60.0
text = "[ Qt. Forge ]"
align = 1
valign = 1
clip_text = true

[node name="Label3" type="Label" parent="."]
margin_left = 10.0
margin_top = 90.0
margin_right = 100.0
margin_bottom = 140.0
text = "[ Qt. Require ]"
align = 1
valign = 1
clip_text = true

[node name="Button" type="Button" parent="."]
margin_left = 330.0
margin_top = 90.0
margin_right = 430.0
margin_bottom = 140.0
text = "Select Recipe"
