[gd_scene load_steps=3 format=2]

[ext_resource path="res://Forge/ForgeManager.gd" type="Script" id=1]
[ext_resource path="res://Forge/BaseForge.tscn" type="PackedScene" id=2]

[node name="ForgeManager" type="ScrollContainer"]
margin_top = 92.0
margin_right = 799.0
margin_bottom = 399.0
scroll_horizontal_enabled = false
script = ExtResource( 1 )

[node name="VBoxContainer" type="VBoxContainer" parent="."]
margin_right = 787.0
margin_bottom = 414.0
rect_clip_content = true
size_flags_horizontal = 3
size_flags_vertical = 3
custom_constants/separation = 138

[node name="BaseForge" parent="VBoxContainer" instance=ExtResource( 2 )]
anchor_right = 0.0
anchor_bottom = 0.0
margin_right = 787.0
margin_bottom = 0.0

[node name="BaseForge2" parent="VBoxContainer" instance=ExtResource( 2 )]
anchor_right = 0.0
anchor_bottom = 0.0
margin_top = 138.0
margin_right = 787.0
margin_bottom = 138.0

[node name="BaseForge3" parent="VBoxContainer" instance=ExtResource( 2 )]
anchor_right = 0.0
anchor_bottom = 0.0
margin_top = 276.0
margin_right = 787.0
margin_bottom = 276.0

[node name="Control" type="Control" parent="VBoxContainer"]
margin_top = 414.0
margin_right = 787.0
margin_bottom = 414.0
